module gitlab.com/eread/eread

go 1.23.3

require (
	github.com/Masterminds/semver/v3 v3.3.1
	github.com/charmbracelet/bubbles/v2 v2.0.0-alpha.2.0.20250211170751-4491afa808c7
	github.com/charmbracelet/bubbletea/v2 v2.0.0-alpha.2.0.20250213172939-705c75d7b8d2
	github.com/charmbracelet/glamour v0.8.0
	github.com/charmbracelet/huh v0.6.0
	github.com/charmbracelet/lipgloss/v2 v2.0.0-alpha.2.0.20250218201041-aa91bd691cf5
	github.com/charmbracelet/log v0.4.0
	github.com/enescakir/emoji v1.0.0
	github.com/spf13/cobra v1.9.1
	github.com/spf13/viper v1.19.0
)

require (
	github.com/alecthomas/chroma/v2 v2.15.0 // indirect
	github.com/atotto/clipboard v0.1.4 // indirect
	github.com/aymanbagabas/go-osc52/v2 v2.0.1 // indirect
	github.com/aymerick/douceur v0.2.0 // indirect
	github.com/catppuccin/go v0.3.0 // indirect
	github.com/charmbracelet/bubbles v0.20.0 // indirect
	github.com/charmbracelet/bubbletea v1.3.4 // indirect
	github.com/charmbracelet/colorprofile v0.2.1 // indirect
	github.com/charmbracelet/lipgloss v1.0.0 // indirect
	github.com/charmbracelet/x/ansi v0.8.0 // indirect
	github.com/charmbracelet/x/cellbuf v0.0.12-0.20250212155406-f75055277088 // indirect
	github.com/charmbracelet/x/exp/strings v0.0.0-20250225180716-97207e149368 // indirect
	github.com/charmbracelet/x/input v0.3.4 // indirect
	github.com/charmbracelet/x/term v0.2.1 // indirect
	github.com/charmbracelet/x/windows v0.2.0 // indirect
	github.com/dlclark/regexp2 v1.11.5 // indirect
	github.com/dustin/go-humanize v1.0.1 // indirect
	github.com/erikgeiser/coninput v0.0.0-20211004153227-1c3628e74d0f // indirect
	github.com/fsnotify/fsnotify v1.8.0 // indirect
	github.com/go-logfmt/logfmt v0.6.0 // indirect
	github.com/gorilla/css v1.0.1 // indirect
	github.com/hashicorp/hcl v1.0.0 // indirect
	github.com/inconshreveable/mousetrap v1.1.0 // indirect
	github.com/lucasb-eyer/go-colorful v1.2.0 // indirect
	github.com/magiconair/properties v1.8.9 // indirect
	github.com/mattn/go-isatty v0.0.20 // indirect
	github.com/mattn/go-localereader v0.0.1 // indirect
	github.com/mattn/go-runewidth v0.0.16 // indirect
	github.com/microcosm-cc/bluemonday v1.0.27 // indirect
	github.com/mitchellh/hashstructure/v2 v2.0.2 // indirect
	github.com/mitchellh/mapstructure v1.5.0 // indirect
	github.com/muesli/ansi v0.0.0-20230316100256-276c6243b2f6 // indirect
	github.com/muesli/cancelreader v0.2.2 // indirect
	github.com/muesli/reflow v0.3.0 // indirect
	github.com/muesli/termenv v0.16.0 // indirect
	github.com/pelletier/go-toml/v2 v2.2.3 // indirect
	github.com/rivo/uniseg v0.4.7 // indirect
	github.com/sagikazarmark/locafero v0.7.0 // indirect
	github.com/sagikazarmark/slog-shim v0.1.0 // indirect
	github.com/sourcegraph/conc v0.3.0 // indirect
	github.com/spf13/afero v1.12.0 // indirect
	github.com/spf13/cast v1.7.1 // indirect
	github.com/spf13/pflag v1.0.6 // indirect
	github.com/subosito/gotenv v1.6.0 // indirect
	github.com/xo/terminfo v0.0.0-20220910002029-abceb7e1c41e // indirect
	github.com/yuin/goldmark v1.7.8 // indirect
	github.com/yuin/goldmark-emoji v1.0.5 // indirect
	go.uber.org/multierr v1.11.0 // indirect
	golang.org/x/exp v0.0.0-20250218142911-aa4b98e5adaa // indirect
	golang.org/x/net v0.35.0 // indirect
	golang.org/x/sync v0.11.0 // indirect
	golang.org/x/sys v0.30.0 // indirect
	golang.org/x/term v0.29.0 // indirect
	golang.org/x/text v0.22.0 // indirect
	gopkg.in/ini.v1 v1.67.0 // indirect
	gopkg.in/yaml.v3 v3.0.1 // indirect
)
